@startuml
'!define LIGHTBLUE
'!includeurl https://raw.githubusercontent.com/Drakemor/RedDress-PlantUML/master/style.puml

'__Title
title
PERSONAL FINANCE MANAGEMENT

<u>US002.1</u> <b>Create a Group and become Person In Charge</b>
Controller REST Sequence Diagram - <i>Sprint 6</i>

end title

hide footbox

'__HTTP Client
participant ":HTTP Client"

'__Web Server
participant "TomCat (Web Server)"


'__ControllerREST
participant "US002_1CreateGroupControllerREST"


'__REF TomCat Generic Diagram
ref over ":HTTP Client", "TomCat (Web Server)", "US002_1CreateGroupControllerREST" : SD_Tomcat_Generic Processing Representation\n
"US002_1CreateGroupControllerREST" -[hidden]-> "US002_1CreateGroupControllerREST"


'__Assembler
participant "CreateGroupDTOAssembler"
activate "US002_1CreateGroupControllerREST"   #34b7eb
"US002_1CreateGroupControllerREST" [#blue]-> "CreateGroupDTOAssembler" : createDTOFromPrimitiveTypes(email, denomination, description)
                activate "CreateGroupDTOAssembler"   #34b7eb


'__Service
participant "us002_1CreateGroupService:\nUS002_1CreateGroupService"

"CreateGroupDTOAssembler" [#blue]-->  "createGroupDTO:\n CreateGroupDTO" ** : create()
return <b>createGroupDTO</b>


'__Service002_1 Starts
"US002_1CreateGroupControllerREST" [#blue]-> "us002_1CreateGroupService:\nUS002_1CreateGroupService" : createGroupAsPersonInCharge(createGroupDTO)
                    activate "us002_1CreateGroupService:\nUS002_1CreateGroupService"   #34b7eb

       ''__Get DTO parameters
"us002_1CreateGroupService:\nUS002_1CreateGroupService"  [#blue]-> "createGroupDTO:\n CreateGroupDTO": getEmail()
                        activate "createGroupDTO:\n CreateGroupDTO" #34b7eb
                        return <b>email</b>

"us002_1CreateGroupService:\nUS002_1CreateGroupService"  [#blue]-> "createGroupDTO:\n CreateGroupDTO": getDenomination()
                        activate "createGroupDTO:\n CreateGroupDTO" #34b7eb
                        return <b>denomination</b>

"us002_1CreateGroupService:\nUS002_1CreateGroupService"  [#blue]-> "createGroupDTO:\n CreateGroupDTO": getDescription()
                        activate "createGroupDTO:\n CreateGroupDTO" #34b7eb
                        return <b>description</b>

       ''__Verification
participant "PersonID"
"us002_1CreateGroupService:\nUS002_1CreateGroupService"  [#blue]-> "PersonID" : createPersonID
                    activate PersonID #34b7eb
ref over "PersonID" : SD_PersonID
                   return <b>personID</b>

participant PersonRepository
"us002_1CreateGroupService:\nUS002_1CreateGroupService" [#blue]--> "PersonRepository" : existPerson(personID)
                    activate PersonRepository #34b7eb
                    return boolean <b>true</b>

participant "GroupID"
"us002_1CreateGroupService:\nUS002_1CreateGroupService" [#blue]--> "GroupID": createGroupID(denomination)
                    activate "GroupID" #34b7eb
ref over "GroupID" : SD_GroupID
                    return <b>groupID</b>

participant GroupRepository
participant LedgerRepository

"us002_1CreateGroupService:\nUS002_1CreateGroupService" [#blue]--> "GroupRepository" : existGroup(groupID)
                    activate GroupRepository #34b7eb
                    return boolean <b>false</b>

participant LocalDate
       ''__Construction of groups parameters
"us002_1CreateGroupService:\nUS002_1CreateGroupService"  [#blue]-> "LocalDate" : now()
                     activate LocalDate #34b7eb
                     ref over "LocalDate" : SD_LocalDate
                     return <b>dateOfCreation</b>

participant Ledger
"us002_1CreateGroupService:\nUS002_1CreateGroupService" [#blue]--> "Ledger" : create()
                      activate "Ledger" #34b7eb
                      ref over "Ledger" : SD_Ledger
"us002_1CreateGroupService:\nUS002_1CreateGroupService" [#blue]--> "Ledger" : getLedgerID()
                      return <b>ledgerID</b>


       ''__Create and save Group
participant "Group"
"us002_1CreateGroupService:\nUS002_1CreateGroupService" [#blue]-> "Group" : createGroupAsPersonInCharge(denomination, personInCharge, description, dateOfCreation, ledgerID)
                      activate "Group" #34b7eb
                      "Group" [#blue]--> "newGroup:Group" **: create()
                      return newGroup

"us002_1CreateGroupService:\nUS002_1CreateGroupService" [#blue]-> "GroupRepository" : saveGroup(newGroup)
activate GroupRepository #34b7eb
return boolean <b>true</b>
"us002_1CreateGroupService:\nUS002_1CreateGroupService" [#blue]-> "LedgerRepository" : save(groupLedger)
activate LedgerRepository #34b7eb
return boolean <b>true</b>

'__GroupDTOAssembler
participant "GroupDTOAssembler"
"us002_1CreateGroupService:\nUS002_1CreateGroupService" [#blue]--> "GroupDTOAssembler" : createDTOFromDomainObject(denomination, description, dateOfCreation)
activate "GroupDTOAssembler" #34b7eb
ref over "GroupDTOAssembler" : SD_GroupDTOAssembler

return GroupDTO <b>result</b>
return GroupDTO <b>result</b>

deactivate "us002_1CreateGroupService:\nUS002_1CreateGroupService"
'__Service002_1 Ends

deactivate "US002_1CreateGroupControllerREST"

'__ControllerREST002_1 Ends


'__REF TomCat Generic Diagram
ref over ":HTTP Client", "TomCat (Web Server)", "US002_1CreateGroupControllerREST" : SD_Tomcat_Generic Processing Representation\n


@enduml