@startuml

!define LIGHTBLUE

'!includeurl https://raw.githubusercontent.com/Drakemor/RedDress-PlantUML/master/style.puml

hide footbox

'__Title
title <b>"Personal Finance Management"</b>\nSequence Diagram of createPersonAccountDTOAssembler\n

participant "createPersonAccountDTOAssembler : \n CreatePersonAccountDTOAssembler"
'"controller_us06 : Controller_US06" [#blue]->  "US06_Assembler" : createDTOFromPrimitveTypes\n(email, denomination, description)
activate "createPersonAccountDTOAssembler : \n CreatePersonAccountDTOAssembler" #34b7eb
create "createPersonAccountDTO : \nCreatePersonAccountDTO"
"createPersonAccountDTOAssembler : \n CreatePersonAccountDTOAssembler" [#blue]-->  "createPersonAccountDTO : \nCreatePersonAccountDTO" : createDTOFromPrimitveTypes(<b>email</b>, \n<b>denomination, description</b>)
return <b>createPersonAccountDTO</b>

deactivate "createPersonAccountDTOAssembler : \n CreatePersonAccountDTOAssembler"
@enduml