{
	"info": {
		"_postman_id": "a4c8a1e4-1d2e-4862-83bf-2bd82f91f215",
		"name": "Sprint 5 - US007CreateGroupAccountControllerREST",
		"schema": "https://schema.getpostman.com/json/collection/v2.1.0/collection.json"
	},
	"item": [
		{
			"name": "createGroupAccountSuccess",
			"event": [
				{
					"listen": "test",
					"script": {
						"id": "7519ab37-5f57-48a4-b61c-641b7b41cc58",
						"exec": [
							"pm.test(\"Response Status\", function () {",
							"    pm.response.to.have.status(201);",
							"});",
							"",
							"pm.test(\"Response Body\", function () {",
							"    var jsonData = pm.response.json();",
							"    pm.expect(jsonData.result).to.eql(true);",
							"    pm.expect(jsonData.msg).to.eql(\"Account created and added\");",
							"",
							"});"
						],
						"type": "text/javascript"
					}
				}
			],
			"request": {
				"method": "POST",
				"header": [],
				"body": {
					"mode": "raw",
					"raw": "{\n\t\"personEmail\" : \"ilda@gmail.com\",\n\t\"groupDenomination\" : \"Fontes Family\",\n\t\"accountDenomination\" : \"Fontes Account\",\n\t\"accountDescription\" : \"Fontes Expenses\"\n}",
					"options": {
						"raw": {
							"language": "json"
						}
					}
				},
				"url": {
					"raw": "localhost:8080/createGroupAccount",
					"host": [
						"localhost"
					],
					"port": "8080",
					"path": [
						"createGroupAccount"
					]
				}
			},
			"response": []
		},
		{
			"name": "createGroupAccountPersonNotInCharge",
			"event": [
				{
					"listen": "test",
					"script": {
						"id": "99a5e4bc-29ed-435b-87d7-d41f60ae582c",
						"exec": [
							"pm.test(\"Response Status\", function () {",
							"    pm.response.to.have.status(200);",
							"});",
							"",
							"pm.test(\"Response Body\", function () {",
							"    var jsonData = pm.response.json();",
							"    pm.expect(jsonData.result).to.eql(false);",
							"    pm.expect(jsonData.msg).to.eql(\"Person is not in charge\");",
							"",
							"});"
						],
						"type": "text/javascript"
					}
				}
			],
			"request": {
				"method": "POST",
				"header": [],
				"body": {
					"mode": "raw",
					"raw": "{\n\t\"personEmail\" : \"paulo@gmail.com\",\n\t\"groupDenomination\" : \"Fontes Family\",\n\t\"accountDenomination\" : \"Fontes Account\",\n\t\"accountDescription\" : \"Fontes Expenses\"\n}",
					"options": {
						"raw": {
							"language": "json"
						}
					}
				},
				"url": {
					"raw": "localhost:8080/createGroupAccount",
					"host": [
						"localhost"
					],
					"port": "8080",
					"path": [
						"createGroupAccount"
					]
				}
			},
			"response": []
		},
		{
			"name": "createGroupAccountAlreadyExists",
			"event": [
				{
					"listen": "test",
					"script": {
						"id": "137d3f44-12ec-41c4-9cab-d02954d8b625",
						"exec": [
							"pm.test(\"Response Status\", function () {",
							"    pm.response.to.have.status(200);",
							"});",
							"",
							"pm.test(\"Response Body\", function () {",
							"    var jsonData = pm.response.json();",
							"    pm.expect(jsonData.result).to.eql(false);",
							"    pm.expect(jsonData.msg).to.eql(\"Account already exists\");",
							"",
							"});"
						],
						"type": "text/javascript"
					}
				}
			],
			"request": {
				"method": "POST",
				"header": [],
				"body": {
					"mode": "raw",
					"raw": "{\n\t\"personEmail\" : \"ilda@gmail.com\",\n\t\"groupDenomination\" : \"Fontes Family\",\n\t\"accountDenomination\" : \"Company\",\n\t\"accountDescription\" : \"Fontes Expenses\"\n}",
					"options": {
						"raw": {
							"language": "json"
						}
					}
				},
				"url": {
					"raw": "localhost:8080/createGroupAccount",
					"host": [
						"localhost"
					],
					"port": "8080",
					"path": [
						"createGroupAccount"
					]
				}
			},
			"response": []
		},
		{
			"name": "createGroupAccountGroupDoesNotExist",
			"event": [
				{
					"listen": "test",
					"script": {
						"id": "960e4692-74c0-4590-8c84-2c2a5685740d",
						"exec": [
							"pm.test(\"Response Status\", function () {",
							"    pm.response.to.have.status(200);",
							"});",
							"",
							"pm.test(\"Response Body\", function () {",
							"    var jsonData = pm.response.json();",
							"    pm.expect(jsonData.result).to.eql(false);",
							"    pm.expect(jsonData.msg).to.eql(\"Group does not exist\");",
							"",
							"});"
						],
						"type": "text/javascript"
					}
				}
			],
			"request": {
				"method": "POST",
				"header": [],
				"body": {
					"mode": "raw",
					"raw": "{\n\t\"personEmail\" : \"ilda@gmail.com\",\n\t\"groupDenomination\" : \"Santos Family\",\n\t\"accountDenomination\" : \"Fontes Account\",\n\t\"accountDescription\" : \"Fontes Expenses\"\n}",
					"options": {
						"raw": {
							"language": "json"
						}
					}
				},
				"url": {
					"raw": "localhost:8080/createGroupAccount",
					"host": [
						"localhost"
					],
					"port": "8080",
					"path": [
						"createGroupAccount"
					]
				}
			},
			"response": []
		}
	],
	"protocolProfileBehavior": {}
}