@startuml

scale 1.35

'__Layout
skinparam class {
BackgroundColor #F2F2F2
ArrowColor #404040
BorderColor #7F7F7F
}

skinparam classAttributeIconSize 0

left to right direction

'__Title
title <b>"Personal Finance Management"</b>\nDesign Class Diagram US007CreateGroupAccount

'__Design classes

class US007CreateGroupAccountControllerREST {
+ createGroupAccount()
}

class CreateGroupAccountDTOAssembler {
+ createDTOFromPrimitiveTypes()
}

class CreateGroupAccountDTO {
- personEmail : String
- groupDenomination : String
- accountDenomination : String
- accountDescription : String
+ createGroupAccount()
(...)
}

class US007CreateGroupAccountService {
- accountRepository : IAccountRepository
- groupRepository : IGroupRepository
+ createAccountAsPersonInCharge()
}

interface IAccountRepository {
}

class AccountRepository {
- accounts : List<Account>
+ existsAccount()
+ saveAccount()
(...)
}

package "Aggregate Account" <<Folder>> {
class Account {
- accountID : AccountID
+ CreateAccountGroup()
(...)
}
}

interface IGroupRepository {
}

class GroupRepository {
- groupRepo : List<Group>
+ findGroupByGroupID()
(...)
}

package "Aggregate Group" <<Folder>> {
class Group {
- groupID : GroupID
- peopleInCharge : List<PersonID>
- listOfAccounts : List<AccountID>
+ isPersonPeopleInCharge()
+ checkIfGroupHasAccount()
+ addAccount()
(...)
}
}

class GroupDTOAssembler {
+ createDTOFromDomainObject()
(...)
}

class GroupDTO {
- denomination : String
- description : String
- dateOfCreation : String
+ GroupDTO()
(...)
}

'__Associations
'__Dependency relationships

US007CreateGroupAccountControllerREST ..> CreateGroupAccountDTOAssembler
CreateGroupAccountDTOAssembler --> CreateGroupAccountDTO
US007CreateGroupAccountControllerREST ..> US007CreateGroupAccountService
US007CreateGroupAccountService ..> IAccountRepository
US007CreateGroupAccountService ..> IGroupRepository
IAccountRepository <|.. AccountRepository
IGroupRepository <|.. GroupRepository
AccountRepository "1" *-- "*" Account
GroupRepository "1" *-- "*" Group
US007CreateGroupAccountService --> GroupDTOAssembler
GroupDTOAssembler --> GroupDTO



@enduml