@startuml

scale 1.35

'__Layout
skinparam class {
BackgroundColor #F2F2F2
ArrowColor #404040
BorderColor #7F7F7F
}

skinparam classAttributeIconSize 0

left to right direction


'__Design classes

'__Title
title <b>US005.1</b> Create a Group Category\nController REST Design Class Diagram - <i>Sprint 6</i>

'__Controller
class US005_1CreateGroupCategoryControllerREST {
+ createGroupCategory()
}

'__DTO
class CreateGroupCategoryDTOAssembler {
+ createDTOFromPrimitiveTypes()
}

'__DTO
class CreateGroupCategoryDTO {
- personEmail : String
- groupDenomination : String
- categoryDenomination : String
+ CreateGroupCategoryDTO()
}

'__Service
class US005_1CreateGroupCategoryService {
- categoryRepository : ICategoryRepository
- groupRepository : IGroupRepository
+ createCategoryAsPersonInCharge()
}

'__Interface
interface ICategoryRepository {
}

'__Repository
class CategoryRepository {
- categories : List<Category>
+ existsCategory()
+ saveCategory()
}

'__Aggregate
package "Aggregate Category" <<Folder>> {
class Category {
- categoryID : CategoryID
+ createCategory()
(...)
}
}

'__Interface
interface IGroupRepository {
}

'__Repository
class GroupRepository {
- groupRepo : List<Group>
+ findGroupByGroupID()
}

'__Aggregate
package "Aggregate Group" <<Folder>> {
class Group {
- groupID : GroupID
+ isPersonInCharge()
+ checkIfGroupHasCategory()
+ addCategory()
(...)
}
}

'__DTO
class GroupDTOAssembler {
+ createDTOFromDomainObject()
}

'__DTO
class GroupDTO {
- groupDenomination : String
- groupDescription : String
- groupDateOfCreation : String
+ GroupDTO()
}

'__Associations

'__Dependency relationships
US005_1CreateGroupCategoryControllerREST ..> CreateGroupCategoryDTOAssembler
CreateGroupCategoryDTOAssembler --> CreateGroupCategoryDTO
US005_1CreateGroupCategoryControllerREST ..> US005_1CreateGroupCategoryService
US005_1CreateGroupCategoryService ..> ICategoryRepository
US005_1CreateGroupCategoryService ..> IGroupRepository
ICategoryRepository <|.. CategoryRepository
IGroupRepository <|.. GroupRepository
CategoryRepository "1" *-- "*" Category
GroupRepository "1" *-- "*" Group
US005_1CreateGroupCategoryService --> GroupDTOAssembler
GroupDTOAssembler --> GroupDTO


@enduml