{
	"info": {
		"_postman_id": "2a558232-f4b5-446f-a7ff-e78a69a37f26",
		"name": "Sprint06_US03AddPersonToGroup",
		"schema": "https://schema.getpostman.com/json/collection/v2.1.0/collection.json"
	},
	"item": [
		{
			"name": "AddPersonToGroup_SucessCase",
			"event": [
				{
					"listen": "test",
					"script": {
						"id": "59bf4676-8b0e-418a-82b8-4a1eea45b47c",
						"exec": [
							"    //Response Schema",
							"",
							"const schema = {",
							"    \"type\": \"object\",",
							"    ",
							"    \"properties\": {",
							"        ",
							"        \"denomination\": { \"type\" : \"string\"},",
							"        \"desciption\": { \"type\" : \"string\"},",
							"        \"dateOfCreation\": { \"type\" : \"string\"},",
							"        ",
							"        \"_links\":{",
							"            \"type\": \"object\",",
							"            ",
							"            \"properties\": {",
							"                \"admins\": {",
							"                    \"type\": \"object\",",
							"                    \"properties\": {",
							"                        \"href\": {\"type\": \"string\"},",
							"                    },",
							"                    \"required\": [\"href\"]",
							"                    ",
							"                },",
							"                \"members\": {",
							"                    \"type\": \"object\",",
							"                    \"properties\": {",
							"                        \"href\": {\"type\": \"string\"},",
							"                    },",
							"                    \"required\": [\"href\"]",
							"                    ",
							"                },",
							"                \"ledger\": {",
							"                    \"type\": \"object\",",
							"                    \"properties\": {",
							"                        \"href\": {\"type\": \"string\"},",
							"                    },",
							"                    \"required\": [\"href\"]",
							"                    ",
							"                },",
							"                \"accounts\": {",
							"                    \"type\": \"object\",",
							"                     \"properties\": {",
							"                        \"href\": {\"type\": \"string\"},",
							"                    },",
							"                    \"required\": [\"href\"]",
							"                    ",
							"                },",
							"                \"categories\": {",
							"                    \"type\": \"object\",",
							"                    \"properties\": {",
							"                        \"href\": {\"type\": \"string\"},",
							"                    },",
							"                    \"required\": [\"href\"]",
							"                    ",
							"                }",
							"            },",
							"            ",
							"            \"required\": [\"admins\", \"members\", \"ledger\", \"accounts\", \"categories\"] }",
							"            ",
							"    }, \"required\": [\"denomination\", \"_links\"]",
							"};",
							"",
							"    //Test Response Schema ",
							"",
							"pm.test('Schema is valid', () => {",
							"    ",
							"  pm.response.to.have.jsonSchema(schema);",
							"  ",
							"});",
							"",
							"",
							"    //Test Response Body",
							"",
							"pm.test(\"Response Body\", () => {",
							"    ",
							"  const moment = require('moment')",
							"  let dateNow = moment().format(\"YYYY-MM-DD\")",
							"  ",
							"  var jsonData = pm.response.json();",
							"  ",
							"  pm.expect(jsonData.denomination).to.eql(\"Sunday Runners\");",
							"  pm.expect(jsonData.description).to.eql(\"All members from Sunday Runners group\");",
							"  pm.expect(jsonData.dateOfCreation).to.eql(dateNow);",
							"  ",
							"});"
						],
						"type": "text/javascript"
					}
				}
			],
			"request": {
				"method": "POST",
				"header": [],
				"body": {
					"mode": "raw",
					"raw": "{\n\t\"email\" : \"joao@gmail.com\"\n}",
					"options": {
						"raw": {
							"language": "json"
						}
					}
				},
				"url": {
					"raw": "http://localhost:8080//groups/Sunday Runners/members",
					"protocol": "http",
					"host": [
						"localhost"
					],
					"port": "8080",
					"path": [
						"",
						"groups",
						"Sunday Runners",
						"members"
					]
				}
			},
			"response": []
		},
		{
			"name": "AddPersonToGroup_GroupDoesNotExist",
			"event": [
				{
					"listen": "test",
					"script": {
						"id": "15aa3a9f-5033-45f0-8ae6-054c0dc92446",
						"exec": [
							"    //Response Schema",
							"    ",
							"const schema = {",
							"    ",
							"    \"type\": \"object\",",
							"    ",
							"    \"properties\": {",
							"        ",
							"        \"status\": { \"type\": \"string\" },",
							"        ",
							"        \"message\": { \"type\": \"string\" },",
							"        ",
							"        \"errors\": {",
							"            \"type\": \"array\",",
							"            \"minItems\": 1,",
							"            \"maxItems\": 1,",
							"            \"items\": {",
							"                \"type\": \"string\"",
							"            }",
							"        ",
							"    }}, \"required\": [\"status\", \"message\", \"errors\"]",
							"};",
							"",
							"    //Test Response Schema ",
							"",
							"pm.test(\"Validate schema\", () => {",
							"    ",
							"    pm.response.to.have.jsonSchema(schema);",
							"    ",
							"});",
							"",
							"",
							"    //Test Response Body",
							"",
							"pm.test(\"Response Body\", function () {",
							"    ",
							"    var jsonData = pm.response.json();",
							"    ",
							"    pm.expect(jsonData.status).to.eql(\"UNPROCESSABLE_ENTITY\");",
							"    pm.expect(jsonData.message).to.eql(\"Person does not exist\");",
							"    pm.expect(jsonData.errors[0]).to.eql(\"Status Code: 422, Exception: InvalidArgumentsBusinessException\");",
							"    ",
							"});"
						],
						"type": "text/javascript"
					}
				}
			],
			"request": {
				"method": "POST",
				"header": [],
				"body": {
					"mode": "raw",
					"raw": "{\n\t\"email\" : \"crispim@gmail.com\"\n}",
					"options": {
						"raw": {
							"language": "json"
						}
					}
				},
				"url": {
					"raw": "http://localhost:8080//groups/Sunday Runners/members",
					"protocol": "http",
					"host": [
						"localhost"
					],
					"port": "8080",
					"path": [
						"",
						"groups",
						"Sunday Runners",
						"members"
					]
				}
			},
			"response": []
		},
		{
			"name": "AddPersonToGroup_PersonDoesNotExist",
			"event": [
				{
					"listen": "test",
					"script": {
						"id": "7ecb66cc-c863-4ec2-9fa3-5d3a030a41f3",
						"exec": [
							"    //Response Schema",
							"",
							"const schema = {",
							"    ",
							"    \"type\": \"object\",",
							"    ",
							"    \"properties\": {",
							"        ",
							"        \"status\": { \"type\": \"string\" },",
							"        ",
							"        \"message\": { \"type\": \"string\" },",
							"        ",
							"        \"errors\": {",
							"            \"type\": \"array\",",
							"            \"minItems\": 1,",
							"            \"maxItems\": 1,",
							"            \"items\": {",
							"                \"type\": \"string\"",
							"            }",
							"        ",
							"    }}, \"required\": [\"status\", \"message\", \"errors\"]",
							"};",
							"",
							"    //Test Response Schema ",
							"",
							"pm.test(\"Validate schema\", () => {",
							"    ",
							"    pm.response.to.have.jsonSchema(schema);",
							"    ",
							"});",
							"",
							"",
							"    //Test Response Body",
							"",
							"pm.test(\"Response Body\", function () {",
							"    ",
							"    var jsonData = pm.response.json();",
							"    ",
							"    pm.expect(jsonData.status).to.eql(\"NOT_FOUND\");",
							"    pm.expect(jsonData.message).to.eql(\"Group does not exist\");",
							"    pm.expect(jsonData.errors[0]).to.eql(\"Status Code: 404, Exception: NotFoundArgumentsBusinessException\");",
							"    ",
							"});"
						],
						"type": "text/javascript"
					}
				}
			],
			"request": {
				"method": "POST",
				"header": [],
				"body": {
					"mode": "raw",
					"raw": "{\n\t\"email\": \"ilda@gmail.com\"\n}",
					"options": {
						"raw": {
							"language": "json"
						}
					}
				},
				"url": {
					"raw": "http://localhost:8080//groups/Sunday/members",
					"protocol": "http",
					"host": [
						"localhost"
					],
					"port": "8080",
					"path": [
						"",
						"groups",
						"Sunday",
						"members"
					]
				}
			},
			"response": []
		},
		{
			"name": "AddPersonToGroup_PersonIsAlreadyAMember",
			"event": [
				{
					"listen": "test",
					"script": {
						"id": "022e8721-70aa-411e-b435-7ebbe2d5b459",
						"exec": [
							"  //Response Schema",
							"    ",
							"const schema = {",
							"    ",
							"    \"type\": \"object\",",
							"    ",
							"    \"properties\": {",
							"        ",
							"        \"status\": { \"type\": \"string\" },",
							"        ",
							"        \"message\": { \"type\": \"string\" },",
							"        ",
							"        \"errors\": {",
							"            \"type\": \"array\",",
							"            \"minItems\": 1,",
							"            \"maxItems\": 1,",
							"            \"items\": {",
							"                \"type\": \"string\"",
							"            }",
							"        ",
							"    }}, \"required\": [\"status\", \"message\", \"errors\"]",
							"};",
							"",
							"    //Test Response Schema ",
							"",
							"pm.test(\"Validate schema\", () => {",
							"    ",
							"    pm.response.to.have.jsonSchema(schema);",
							"    ",
							"});",
							"",
							"",
							"    //Test Response Body",
							"",
							"pm.test(\"Response Body\", function () {",
							"    ",
							"    var jsonData = pm.response.json();",
							"    ",
							"    pm.expect(jsonData.status).to.eql(\"UNPROCESSABLE_ENTITY\");",
							"    pm.expect(jsonData.message).to.eql(\"Person is already member\");",
							"    pm.expect(jsonData.errors[0]).to.eql(\"Status Code: 422, Exception: InvalidArgumentsBusinessException\");",
							"    ",
							"});"
						],
						"type": "text/javascript"
					}
				}
			],
			"request": {
				"method": "POST",
				"header": [],
				"body": {
					"mode": "raw",
					"raw": "{\n\"email\": \"paulo@gmail.com\"\n}",
					"options": {
						"raw": {
							"language": "json"
						}
					}
				},
				"url": {
					"raw": "http://localhost:8080//groups/Sunday Runners/members",
					"protocol": "http",
					"host": [
						"localhost"
					],
					"port": "8080",
					"path": [
						"",
						"groups",
						"Sunday Runners",
						"members"
					]
				}
			},
			"response": []
		}
	],
	"protocolProfileBehavior": {}
}