@startuml

scale 1.5

'__Layout
skinparam class {
BackgroundColor #F2F2F2
ArrowColor #404040
BorderColor #7F7F7F
}

skinparam classAttributeIconSize 0

left to right direction

'__Title
title <b>"Personal Finance Management"</b>\nDesign Class Diagram US8.1

'__Design classes

class Controller_US8_1 {

+ createGroupTransactionAsMember()
}

class Group {
- denomination : String
- description : String
- peopleInCharge : ArrayList<Person>
- members : ArrayList<Person>
- dateOfCreation : String
- ledger : Ledger

+ createAndAddTransactionWithDate()
(...)
}

class Ledger {
- records : ArrayList<Transaction>
+ createAndAddTransactionWithDate()
(...)
}

class Transaction {
- category : Category
- type : String
- description : String
- amount : double
- date : LocalDate
- debitAccount : Account
- creditAccount : Account
+ Transaction()
(...)
}

'__Associations
Controller_US8_1  ..>  Group
Group "1" *--> "1" Ledger
Ledger "1" *--> "*" Transaction

'__Dependency relationships
'Group ..> Ledger : «create»
Ledger ..> Transaction : «create»

@enduml