@startuml

scale 1

'__Layout
skinparam class {
BackgroundColor #F2F2F2
ArrowColor #404040
BorderColor #7F7F7F
}

skinparam classAttributeIconSize 0

left to right direction

'__Title
title <b>"Personal Finance Management"</b>\nDesign Class Diagram US02.1

'__Design classes
class Controller_US02_1 {

+ createGroupByPersonAsPersonInCharge()
}

class Person {
- name : String
- birthdate : LocalDate
- myGroups : GroupList

+ createGroupAsPeopleInCharge()
(...)
}

class GroupList {
- listOfGroups : ArrayList<Group>

+ createGroupAsPeopleInCharge()
+ addGroup()
(...)
}

class Group {
- denomination : String
- description : String
- people in charge : ArrayList<Person>
- dateOfCreation : String

+ Group()
(...)
}

'__Associations
Controller_US02_1 ..> Person
Person "1" *--> "1" GroupList
GroupList "1" *-down-> "*" Group

'__Dependency relationships
'Person ..> GroupList : «create»
GroupList .down.> Group : «create»

@enduml