@startuml

scale 1.5

'__Layout
skinparam class {
BackgroundColor #F2F2F2
ArrowColor #404040
BorderColor #7F7F7F
}

skinparam classAttributeIconSize 0

left to right direction

'__Title
title <b>"Personal Finance Management"</b>\nDesign Class Diagram US018

'__Design classes
class Group {
- denomination : String
- peopleInCharge : ArrayList<Person>
- members : ArrayList<Person>
- description : String
- dateOfCreation : LocalDate
- categories : CategoryList
- accounts : AccountList
- ledger : Ledger
- schedulings : SchedulingList

+ getAmountBetweenTwoDates()
(...)
}



class Ledger {
- records : ArrayList<Transaction>
+ getAmountBetweenTwoDates()
(...)
}

class Controller_US018 {
+ getAmountBetweenTwoDates()
}

'__Associations

Group "1" *--> "1" Ledger

'__Dependency relationships

Controller_US018 ..> Group


@enduml