@startuml
!define LIGHTBLUE
!includeurl https://raw.githubusercontent.com/Drakemor/RedDress-PlantUML/master/style.puml
hide footbox
participant ":Controller_US020Test"
create "ledger:Ledger"
"groupFriends:Group" [#blue]-> "ledger:Ledger": create
'box "Users" #LightBlue
create "controller_us020:Controller_US020"
":Controller_US020Test" [#blue]-> "controller_us020:Controller_US020": create
participant "personMiguel:Person"
participant "groupFriends:Group"
participant "ledger:Ledger"
'participant "categorySalary:Category"
'participant "accountDebit:Account"
'participant "accountCredit:Account"
'participant "accountCredit:Transaction"
'participant "accountCredit:Transaction"
'end box
'participant "categories:CategoryList"
'participant "category:Category"
'"controller_us020:Controller_US020" [#blue]-> "categories:CategoryList": create
":Controller_US020Test" [#blue]-> "controller_us020:Controller_US020":boolean <b>result</b> = createGroupTransactionScheduling(Group group,\nPerson person, String transactionType, double amount, Account creditAccount,\n Account debitAccount, Category category, String description, LocalDateTime triggerDate,\n String periodicity, int periodInSeconds)
"controller_us020:Controller_US020" [#blue]-> "groupFriends:Group": createScheduling(transactionType, amount,\ncreditAccount, debitAccount, category, description, triggerDate,\n periodicity, periodInSeconds)
create "schedulings:SchedulingList"
"groupFriends:Group" [#blue]-> "schedulings:SchedulingList": createScheduling(this.ledger, transactionType, amount,\n creditAccount, debitAccount, category, description, triggerDate,\nperiodicity, periodInSeconds)
'create "category:Category"
'"categories:CategoryList" [#blue]-> "category:Category": create
'participant "ac1:Account"
'        "controller_us020:Controller_US020" [#blue]-> "denominationFood:CategoryList": personJoana=ew/create
'participant "denominationFood:CategoryList"
'create "schedulingList:SchedulingList"
create "scheduling:Scheduling"
"schedulings:SchedulingList" [#blue]-> "scheduling:Scheduling": create
"schedulings:SchedulingList" [#blue]-> "schedulings:SchedulingList": add(newScheduling)
'create "ac1:Account"
'        "controller_us020:Controller_US020" [#blue]-> "ac1:Account": new/create
'        "controller_us020:Controller_US020" [#blue]-> "denominationFood:CategoryList": ADDACOUNT
'"controller_us020:Controller_US020" -> "controller_us020:Controller_US020" : addCategory
'"categories:CategoryList" -> "categories:CategoryList" : add(category)
participant "expected:boolean"
":Controller_US020Test" [#blue]-> ":Controller_US020Test":  assertEquals(expected,\n <b>result</b>);
'"controller_us020:Controller_US020" [#blue]--> ":Controller_US020Test":
'"expectedCategoryList:CategoryList" [#blue]--> ":Controller_US020Test": AssertTrue()
'return AssertTrue()
@enduml