@startuml
scale 1.5
'__Layout
skinparam class {
BackgroundColor #F2F2F2
ArrowColor #404040
BorderColor #7F7F7F
}
skinparam classAttributeIconSize 0
left to right direction
'__Title
title <b>"Personal Finance Management"</b>\nDesign Class Diagram US019

'__Design classes
class Group {
- dateOfCreation : String
- denomination : String
- description : String
- members : ArrayList<Person>
- responsiblePeople : ArrayList<Person>
+ createAccount()
+ createCategory()
'+ addAccount()
+ createTransaction()
+ getRecordsBetweenTwoDates()
'+ addCategory()
'+ addPeople()
'+ isFamily()
'+ isPersonAlreadyMember()
(...)
}
class GroupList {
- listOfGroups : ArrayList<Group>

+ createGroupAsPeopleInCharge()
+ addGroup()
(...)
}
'class AccountList {
'- accountList : ArrayList<Account>
'+ addAccount()
'+ createAccount()
'(...)
'}
'
'class Account {
'- denomination : String
'- description : String
'(...)
'}
'
'class Address {
'- city : String
'- country : String
'- number : String
'- street : String
'- zipCode : String
'(...)
'}
'
'class Category {
'- denomination : String
'(...)
'}
'
'class CategoryList {
'- categories : ArrayList<Category>
'+ addCategory()
''+ categoryOfIndex()
'+ createCategory()
'(...)
'}
'
'class GroupList {
'- listOfGroups : ArrayList<Group>
'+ addGroup()
'+ createGroup()
''+ groupsThatAreFamilies()
'(...)
'}
class Ledger {
- records : ArrayList<Transaction>
+ addTransaction()
+ createTransaction()
+ getRecordsBetweenTwoDates()
(...)
}

class Person {
- birthdate : String
- birthplace : String
- name : String
- siblings : ArrayList<Person>
'+ addSiblings()
+ createAccount()
+ createCategory()
+ createTransaction()
+ getRecordsBetweenTwoDates()
+ getPersonGroupsRecordsBetweenTwoDates()
'+ verifySameBirthdate()
'+ verifySameBirthplace()
'+ verifySameName()
'+ verifySameSiblings()
'+ verifySiblingsOrHalfSiblings()
(...)
}
'
'class PersonList {
'- personList : ArrayList<Person>
'+ createPerson()
'+ addPerson()
'+ removePerson()
'(...)
'}
'
'class Transaction {
'- amount : double
'- date : String
'- description : String
'- type : String
'+ getDebitAccount()
'+ getCreditAccount()
'(...)
'}
'class Scheduling {
'}
class Controller_US019 {
+ getPersonRecordsBetweenTwoDates()
}

'__Associations
'GroupList "1" *--> "*" Group
'Group "1" *--> "1" CategoryList
'Group "1" *--> "1" Ledger
'Group "1" *--> "*" Person
'Group "1" *--> "1" AccountList
'PersonList "1" *--> "*" Person
'Person "1" *--> "1" CategoryList
Controller_US019 ..> Person

Person "1" *--> "1" Ledger
Person "1" *--> "1" GroupList
GroupList "1" *--> "1" Group
Group "1" *--> "1" Ledger
'Person "1" *--> "1" Address
'Person "1" *--> "1" AccountList
'CategoryList "1" *--> "*" Category
'Ledger "1" *--> "*" Transaction
'AccountList "1" *--> "*" Account
'AccountList "1" *--> "1" Account
'Transaction "1" *--> "1" Category
'Transaction "1" *--> "1" Account
'__Dependency relationships
'GroupList ..> Group : «create»
'GroupList ..> Person
'Group ..> Category
'Group ..> CategoryList : «create»
'Group ..> Transaction
'Group ..> Ledger : «create»
'Group ..> Person
'Group ..> Person : «create»
'Group ..> AccountList : «create»
'Group ..> Account
'PersonList ..> Person
'PersonList ..> Person : «create»
'Person ..> CategoryList : «create»
'Person ..> Ledger : «create»
'Person ..> Address
'Person ..> Transaction
'Person ..> Category
'Person ..> AccountList : «create»
'Person ..> Account
'CategoryList ..> Category : «create»
'Ledger ..> Category
'Ledger ..> Transaction : «create»
'Ledger ..> Account
'AccountList ..> Account : «create»
'Transaction ..> Category
'Transaction ..> Account
@enduml