@startuml

scale 1.35

'__Layout
skinparam class {
BackgroundColor #F2F2F2
ArrowColor #404040
BorderColor #7F7F7F
}

skinparam classAttributeIconSize 0

left to right direction

'__Design classes

'__Title
title <b>US002.1</b> Create a Group and become Person In Charge\nController REST Design Class Diagram - <i>Sprint 7</i>

'__Controller
class US002_1CreateGroupControllerREST{
+ createGroupAsPersonInCharge()
}

'__DTO
class CreateGroupDTOAssembler {
 + createDTOFromPrimitiveTypes()
 }


'__DTO
 class CreateGroupDTO {
 - email: String
 - denomination: String
 - description: String
 +CreateGroupDTO()
 }

'__Service
class US002_1CreateGroupService {
- personRepository: IPersonRepository
- groupRepository: IGroupRepository
+ createGroupAsPersonInCharge()
}

'__Interface
interface IPersonRepository {
}

'__Repository
class PersonRepository {
- personRepo : List <Person>
+ existPerson()
(...)
}

'__Aggregate
package AggregatePerson <<Folder>>{
class Person {
- personID : personID
}
}

'__Interface
interface IGroupRepository {
}

'__Repository
class GroupRepository {
- groupRepo : List <Group>
+ existGroup()
+ saveGroup()
(...)
}

'__Aggregate
package AggregateGroup <<Folder>>{
class Group {
- groupID: groupID
- description : Description
- personInCharge : PersonID
- dateOfCreation : Date
- ledgerId : LedgerID
+ createGroupAsPersonInCharge()
(...)
}
}

'__DTO
class GroupDTOAssembler {
 + createDTOFromDomainObject()
 }

 '__DTO
 class GroupDTO {
  - denomination: String
  - description: String
  - dateOfCreation: String
   + GroupDTO()
  }

'__Associations

'__Dependency relationships
US002_1CreateGroupControllerREST..> CreateGroupDTOAssembler
CreateGroupDTOAssembler --> CreateGroupDTO
US002_1CreateGroupControllerREST..> US002_1CreateGroupService
US002_1CreateGroupService --> IGroupRepository
US002_1CreateGroupService --> IPersonRepository
IGroupRepository <.. GroupRepository
IPersonRepository <.. PersonRepository
GroupRepository "1" *--> "*" Group
PersonRepository "1" *--> "*" Person
US002_1CreateGroupService --> GroupDTOAssembler
GroupDTOAssembler --> GroupDTO

@enduml