@startuml
!define LIGHTBLUE
!includeurl https://raw.githubusercontent.com/Drakemor/RedDress-PlantUML/master/style.puml


'__Title
title <b>"Personal Finance Management"</b>\nSequence Diagram US004GroupsThatAreFamilyControllerRestControllerREST

hide footbox

'__HTTP Client
participant ":HTTP Client"

'__Web Server
participant "TomCat (Web Server)"


'__ControllerREST
participant "US004GroupsThatAreFamilyControllerRest"
activate "US004GroupsThatAreFamilyControllerRest" #34b7eb

participant "GroupsThatAreFamilyDTOAssembler"

'__REF TomCat Generic Diagram
ref over ":HTTP Client", "TomCat (Web Server)", "US004GroupsThatAreFamilyControllerRest" : SD_Tomcat_Generic Processing Representation\n
"US004GroupsThatAreFamilyControllerRest" -[hidden]-> "US004GroupsThatAreFamilyControllerRest"

'__Service_US04
participant "us0004GroupsThatAreFamilyService : \n Us0004GroupsThatAreFamilyService"

participant "personRepository:PersonRepository"

participant "groupRepository:GroupRepository"

"US004GroupsThatAreFamilyControllerRest" [#blue]-> "us0004GroupsThatAreFamilyService : \n Us0004GroupsThatAreFamilyService" : groupsThatAreFamily()
activate "us0004GroupsThatAreFamilyService : \n Us0004GroupsThatAreFamilyService" #34b7eb

"us0004GroupsThatAreFamilyService : \n Us0004GroupsThatAreFamilyService" [#blue]-> "groupRepository:GroupRepository" : getGroupRepo()
activate "groupRepository:GroupRepository" #34b7eb
return List<Group> <b>listGroups</b>

loop for each group

"us0004GroupsThatAreFamilyService : \n Us0004GroupsThatAreFamilyService" [#blue]-> "us0004GroupsThatAreFamilyService : \n Us0004GroupsThatAreFamilyService" : groupID =  isFamily(group)

opt groupID != null
"us0004GroupsThatAreFamilyService : \n Us0004GroupsThatAreFamilyService" [#blue]-> "us0004GroupsThatAreFamilyService : \n Us0004GroupsThatAreFamilyService" : listToReturn.add(groupID)

end
end

"GroupsThatAreFamilyDTOAssembler" <-[#blue] "us0004GroupsThatAreFamilyService : \n Us0004GroupsThatAreFamilyService": createDTOFromDomainObject(<b>listToReturn</b>)
activate "GroupsThatAreFamilyDTOAssembler" #34b7eb
return GroupsThatAreFamilyDTO <b>result</b>

return GroupsThatAreFamilyDTO <b>result</b>

'__REF TomCat Generic Diagram
ref over ":HTTP Client", "TomCat (Web Server)", "US004GroupsThatAreFamilyControllerRest" : SD_Tomcat_Generic Processing Representation\n
@enduml