@startuml
!define LIGHTBLUE
!includeurl https://raw.githubusercontent.com/Drakemor/RedDress-PlantUML/master/style.puml


hide footbox
participant ":testController_US03"

create "controller_us03 : Controller_US03"
activate ":testController_US03" #34b7eb

":testController_US03" [#blue]--> "controller_us03 : Controller_US03": create

":testController_US03" [#blue]-> "controller_us03 : Controller_US03":addPersonToGroup (String email, PersonRepository personRepository,\n  String denomination, GroupRepository groupRepository )
activate "controller_us03 : Controller_US03" #34b7eb

create "service_US03 : Service_US03"
"controller_us03 : Controller_US03" [#blue]-->  "service_US03 : Service_US03" : create
"controller_us03 : Controller_US03" [#blue]-> "service_US03 : Service_US03": addPersonToGroup (String email, PersonRepository personRepository,\n  String denomination, GroupRepository groupRepository )

participant "PersonID"


activate "service_US03 : Service_US03" #34b7eb
"service_US03 : Service_US03" [#blue]->  "PersonID" : createPersonID(email)
activate "PersonID" #34b7eb
create "personID : PersonID"
"PersonID" [#blue]-->  "personID : PersonID" : new PersonID(email)
return <b>personID</b>
deactivate "personID : PersonID"


participant "GroupID"


"service_US03 : Service_US03" [#blue]->  "GroupID" : createGroupID(denomination)
activate "GroupID" #34b7eb
create "groupID : GroupID"
"GroupID" [#blue]-->  "groupID : GroupID" : new GroupID(denomination)
return <b>groupID</b>
deactivate "groupID : GroupID"




"service_US03 : Service_US03" [#blue]-> "personRepository : PersonRepository" : existPerson(personID)
activate "personRepository : PersonRepository" #34b7eb
return boolean <b>personExists</b>


participant "groupRepository : GroupRepository"

"service_US03 : Service_US03" [#blue]-> "groupRepository : GroupRepository" : existGroup(groupID)
activate "groupRepository : GroupRepository" #34b7eb
return boolean <b>groupExists</b>

"service_US03 : Service_US03" [#blue]-> "groupRepository : GroupRepository" : findGroupByID(groupID)
activate "groupRepository : GroupRepository" #34b7eb
return Group <b>groupFutebolSemanalJoao</b>

participant "groupFutebolSemanalJoao: Group"

"service_US03 : Service_US03" [#blue]-> "groupFutebolSemanalJoao: Group": isPersonAlreadyMember(personID)
activate "groupFutebolSemanalJoao: Group" #34b7eb
return boolean <b>isPersonAlreadyMember</b>


alt (personExist && groupExist && !isPersonAlreadyMember) == true


"service_US03 : Service_US03" [#blue]-> "groupFutebolSemanalJoao: Group": addMember(member)
activate "groupFutebolSemanalJoao: Group" #34b7eb
return boolean <b>addMember</b>

"controller_us03 : Controller_US03" <-- "service_US03 : Service_US03": boolean <b>result</b> = true
else else

"controller_us03 : Controller_US03" <-- "service_US03 : Service_US03": boolean <b>result</b> = false
deactivate "service_US03 : Service_US03"

end

":testController_US03" <-- "controller_us03 : Controller_US03": <b>result</b>
deactivate "service_US03 : Service_US03"
deactivate "controller_us03 : Controller_US03"


":testController_US03" [#blue]-> ":testController_US03": assertEquals(true, <b>result</b>)
":testController_US03" [#blue]-> ":testController_US03": assertEquals(true, <b>resultPerson</b>)
":testController_US03" [#blue]-> ":testController_US03": assertEquals(true, <b>resultGroup</b>)
":testController_US03" [#blue]-> ":testController_US03": assertEquals(true,\n <b>groupFutebolSemanalJoao.isPersonAlreadyMember(personID)</b>)

@enduml